{
  "movies": [
	{
	  "Title":"Avenger",
	  "Year":"2006",
	  "Rated":"Not Rated",
	  "Released":"09 Apr 2006",
	  "Runtime":"92 min",
	  "Genre":"Thriller",
	  "Director":"Robert Markowitz",
	  "Writer":"Alan Sharp (teleplay), Frederick Forsyth (novel)",
	  "Actors":"Sam Elliott, Timothy Hutton, James Cromwell, William Hope",
	  "Plot":"A C.I.A. Agent steps in to stop a former Special Forces Operative on a for-hire mission that poses a global threat.",
	  "Language":"English",
	  "Country":"USA",
	  "Awards":"N/A",
	  "Poster":"https://m.media-amazon.com/images/M/MV5BMTMzMjMwMjcyNl5BMl5BanBnXkFtZTcwNTA1NDgzMQ@@._V1_SX300.jpg",
	  "Ratings":[
	    {
		  "Source":"Internet Movie Database",
		  "Value":"5.7/10"
		}
	  ],
	  "Metascore":"N/A",
	  "imdbRating":"5.7",
	  "imdbVotes":"886",
	  "imdbID":"tt0473445",
	  "Type":"movie",
	  "DVD":"25 Oct 2005",
	  "BoxOffice":"N/A",
	  "Production":"Warner Home Video",
	  "Website":"N/A",
	  "Response":"True"
	},
	{
      "Title":"Jumanji",
	  "Year":"1995",
	  "Rated":"PG",
	  "Released":"15 Dec 1995",
	  "Runtime":"104 min",
	  "Genre":"Adventure, Comedy, Family, Fantasy",
	  "Director":"Joe Johnston",
	  "Writer":"Jonathan Hensleigh (screenplay by), Greg Taylor (screenplay by), Jim Strain (screenplay by), Greg Taylor (screen story by), Jim Strain (screen story by), Chris Van Allsburg (screen story by), Chris Van Allsburg (based on the book by)",
	  "Actors":"Robin Williams, Jonathan Hyde, Kirsten Dunst, Bradley Pierce",
	  "Plot":"When two kids find and play a magical board game, they release a man trapped for decades in it and a host of dangers that can only be stopped by finishing the game.",
	  "Language":"English, French",
	  "Country":"USA",
	  "Awards":"4 wins & 9 nominations.",
	  "Poster":"https://m.media-amazon.com/images/M/MV5BZTk2ZmUwYmEtNTcwZS00YmMyLWFkYjMtNTRmZDA3YWExMjc2XkEyXkFqcGdeQXVyMTQxNzMzNDI@._V1_SX300.jpg",
	  "Ratings":[
	    {
		  "Source":"Internet Movie Database",
		  "Value":"7.0/10"
		},
		{
		  "Source":"Rotten Tomatoes",
		  "Value":"54%"
		},
		{
		  "Source":"Metacritic",
		  "Value":"39/100"
		}
	  ],
	  "Metascore":"39",
	  "imdbRating":"7.0",
	  "imdbVotes":"272,407",
	  "imdbID":"tt0113497",
	  "Type":"movie",
	  "DVD":"25 Jan 2000",
	  "BoxOffice":"N/A",
	  "Production":"Sony Pictures Home Entertainment",
	  "Website":"N/A",
	  "Response":"True"
    },
    {
      "Title":"Sherlock Holmes",
	  "Year":"2009",
	  "Rated":"PG-13",
	  "Released":"25 Dec 2009",
	  "Runtime":"128 min",
	  "Genre":"Action, Adventure, Crime, Mystery, Thriller",
	  "Director":"Guy Ritchie",
	  "Writer":"Michael Robert Johnson (screenplay), Anthony Peckham (screenplay), Simon Kinberg (screenplay), Lionel Wigram (screen story), Michael Robert Johnson (screen story), Arthur Conan Doyle (characters: Sherlock Holmes, Dr. Watson)",
	  "Actors":"Robert Downey Jr., Jude Law, Rachel McAdams, Mark Strong",
	  "Plot":"Detective Sherlock Holmes and his stalwart partner Watson engage in a battle of wits and brawn with a nemesis whose plot is a threat to all of England.",
	  "Language":"English, French",
	  "Country":"USA, Germany, UK",
	  "Awards":"Nominated for 2 Oscars. Another 10 wins & 27 nominations.",
	  "Poster":"https://m.media-amazon.com/images/M/MV5BMTg0NjEwNjUxM15BMl5BanBnXkFtZTcwMzk0MjQ5Mg@@._V1_SX300.jpg",
	  "Ratings":[
	    {
		  "Source":"Internet Movie Database",
		  "Value":"7.6/10"
		},
		{
		  "Source":"Rotten Tomatoes",
		  "Value":"70%"
		},
		{
		  "Source":"Metacritic",
		  "Value":"57/100"
		}
	  ],
	  "Metascore":"57",
	  "imdbRating":"7.6",
	  "imdbVotes":"551,671",
	  "imdbID":"tt0988045",
	  "Type":"movie",
	  "DVD":"30 Mar 2010",
	  "BoxOffice":"$208,711,166",
	  "Production":"Warner Bros. Pictures/Village Roadshow",
	  "Website":"http://sherlock-holmes-movie.warnerbros.com/",
	  "Response":"True"
	}
  ]
 }